Chapter 4 Results | Ann Arbor Crime Cases Analysis
…
According to time series plot:

in May, 05/01, 05/07, 05/10, 05/13, 05/19, 05/22, 05/25 have a relatively high occurrence of cases.

in September, we can see the cases is relatively high on 09/04, 09/11, 09/17, 09/24, and 09/29, which reach the highest on 09/17.

in October, we can see the cases is extremely high on 10/30, comparing to any other days in that month. 10/06, 10/09, 10/15, 10/22 have a relatively high occurrence of cases.

When comparing the cases peeks among all the dates, we find that there is no fixed pattern for daily number of occurrence of crime cases. Although the highest number of occurrence among a month are not always on weekends, we notice that crimes occur relatively more frequently on weekends especially on Sunday.

4.5 In what time of a day do the cases happen more often?

4.5.1 Time Series Plot among 24 hours of a day

## # A tibble: 24 × 2
##    hour  count
##    <chr> <int>
##  1 00      362
##  2 01      294
##  3 02      351
##  4 03      271
##  5 04      171
##  6 05      127
##  7 06       98
##  8 07       88
##  9 08      135
## 10 09      182
## # … with 14 more rows
…
